…
### 1. Read and clean the data

Read and clean the NYC Transit data

``` r
nyc = 
    read_csv("./data/NYC_Transit_Subway_Entrance_And_Exit_Data.csv") %>% 
    janitor::clean_names() %>% 
    select(line:entry, vending, ada) %>% 
    mutate(entry = ifelse(entry == "YES", T, F))

nyc
```

    ## # A tibble: 1,868 x 19
    ##    line     station_name station_latitude station_longitude route1 route2
    ##    <chr>    <chr>                   <dbl>             <dbl> <chr>  <chr> 
    ##  1 4 Avenue 25th St                  40.7             -74.0 R      <NA>  
    ##  2 4 Avenue 25th St                  40.7             -74.0 R      <NA>  
    ##  3 4 Avenue 36th St                  40.7             -74.0 N      R     
    ##  4 4 Avenue 36th St                  40.7             -74.0 N      R     
    ##  5 4 Avenue 36th St                  40.7             -74.0 N      R     
    ##  6 4 Avenue 45th St                  40.6             -74.0 R      <NA>  
    ##  7 4 Avenue 45th St                  40.6             -74.0 R      <NA>  
    ##  8 4 Avenue 45th St                  40.6             -74.0 R      <NA>  
    ##  9 4 Avenue 45th St                  40.6             -74.0 R      <NA>  
    ## 10 4 Avenue 53rd St                  40.6             -74.0 R      <NA>  
    ## # ... with 1,858 more rows, and 13 more variables: route3 <chr>,
    ## #   route4 <chr>, route5 <chr>, route6 <chr>, route7 <chr>, route8 <int>,
    ## #   route9 <int>, route10 <int>, route11 <int>, entrance_type <chr>,
    ## #   entry <lgl>, vending <chr>, ada <lgl>
…
### 3. Reformat data

Reformat data so that route number and route name are distinct variables. After reforming, I delete the line with NA in route name to make this data set more tidy.

``` r
nyc_reform = nyc %>% 
    gather(key = route_number, value = route_name, route1:route11) %>% 
    select(line, station_name, route_number, route_name, ada, everything()) %>%
    filter(!is.na(route_name)) %>%  
    arrange(line, station_name)

nyc_reform
```

    ## # A tibble: 4,270 x 10
    ##    line     station_name route_number route_name ada   station_latitude
    ##    <chr>    <chr>        <chr>        <chr>      <lgl>            <dbl>
    ##  1 4 Avenue 25th St      route1       R          FALSE             40.7
    ##  2 4 Avenue 25th St      route1       R          FALSE             40.7
    ##  3 4 Avenue 36th St      route1       N          FALSE             40.7
    ##  4 4 Avenue 36th St      route1       N          FALSE             40.7
    ##  5 4 Avenue 36th St      route1       N          FALSE             40.7
    ##  6 4 Avenue 36th St      route2       R          FALSE             40.7
    ##  7 4 Avenue 36th St      route2       R          FALSE             40.7
    ##  8 4 Avenue 36th St      route2       R          FALSE             40.7
    ##  9 4 Avenue 45th St      route1       R          FALSE             40.6
    ## 10 4 Avenue 45th St      route1       R          FALSE             40.6
    ## # ... with 4,260 more rows, and 4 more variables: station_longitude <dbl>,
    ## #   entrance_type <chr>, entry <lgl>, vending <chr>
…
